// Jest Snapshot v1, https://goo.gl/fbAQLP

exports[`Component snapshot testing renders without data 1`] = `
<View
  style={
    Object {
      "alignItems": "center",
      "flexDirection": "row",
      "justifyContent": "space-between",
    }
  }
>
  <View
    style={
      Object {
        "borderBottomWidth": 1,
        "borderColor": "#bdbdbd",
        "flex": 1,
        "marginLeft": 14,
      }
    }
  >
    <TextInput
      allowFontScaling={true}
      onBlur={[Function]}
      onChangeText={[Function]}
      onFocus={[Function]}
      onSubmitEditing={[Function]}
      placeholderTextColor="#bdbdbd"
      selectionColor="#1ea54f"
      style={
        Array [
          Object {
            "color": "#666666",
            "paddingHorizontal": 0,
            "paddingVertical": 5,
          },
          undefined,
        ]
      }
      underlineColorAndroid="transparent"
    />
  </View>
</View>
`;
